tests.py 2014-12-03 11:14:16,508 INFO sqlalchemy.engine.base.Engine select version()
2014-12-03 11:14:16,508 INFO sqlalchemy.engine.base.Engine {}
2014-12-03 11:14:16,510 INFO sqlalchemy.engine.base.Engine select current_schema()
2014-12-03 11:14:16,510 INFO sqlalchemy.engine.base.Engine {}
2014-12-03 11:14:16,512 INFO sqlalchemy.engine.base.Engine SELECT CAST('test plain returns' AS VARCHAR(60)) AS anon_1
2014-12-03 11:14:16,512 INFO sqlalchemy.engine.base.Engine {}
2014-12-03 11:14:16,513 INFO sqlalchemy.engine.base.Engine SELECT CAST('test unicode returns' AS VARCHAR(60)) AS anon_1
2014-12-03 11:14:16,513 INFO sqlalchemy.engine.base.Engine {}
2014-12-03 11:14:16,515 INFO sqlalchemy.engine.base.Engine show standard_conforming_strings
2014-12-03 11:14:16,515 INFO sqlalchemy.engine.base.Engine {}
2014-12-03 11:14:16,516 INFO sqlalchemy.engine.base.Engine BEGIN (implicit)
2014-12-03 11:14:16,532 INFO sqlalchemy.engine.base.Engine select relname from pg_class c join pg_namespace n on n.oid=c.relnamespace where n.nspname=current_schema() and relname=%(name)s
2014-12-03 11:14:16,532 INFO sqlalchemy.engine.base.Engine {'name': u'users'}
2014-12-03 11:14:16,535 INFO sqlalchemy.engine.base.Engine
CREATE TABLE users (
	id SERIAL NOT NULL,
	name VARCHAR(64),
	PRIMARY KEY (id)
)


2014-12-03 11:14:16,536 INFO sqlalchemy.engine.base.Engine {}
2014-12-03 11:14:16,598 INFO sqlalchemy.engine.base.Engine COMMIT
2014-12-03 11:14:16,619 INFO sqlalchemy.engine.base.Engine CREATE UNIQUE INDEX ix_users_name ON users (name)
2014-12-03 11:14:16,619 INFO sqlalchemy.engine.base.Engine {}
2014-12-03 11:14:16,679 INFO sqlalchemy.engine.base.Engine COMMIT
2014-12-03 11:14:16,703 INFO sqlalchemy.engine.base.Engine SAVEPOINT sa_savepoint_1
2014-12-03 11:14:16,703 INFO sqlalchemy.engine.base.Engine {}
.2014-12-03 11:14:16,705 INFO sqlalchemy.engine.base.Engine ROLLBACK TO SAVEPOINT sa_savepoint_1
2014-12-03 11:14:16,705 INFO sqlalchemy.engine.base.Engine {}
2014-12-03 11:14:16,706 INFO sqlalchemy.engine.base.Engine ROLLBACK
